Chapter 11 - Coefficient Level Summaries
…
models <- txhousing %>% 
  group_by(city) %>%
  do(mod = lm(
    log2(sales) ~ factor(month), 
    data = ., 
    na.action = na.exclude
  ))
models

## Source: local data frame [46 x 2]
## Groups: <by row>
## 
## # A tibble: 46 x 2
##                     city      mod
##  *                 <chr>   <list>
##  1               Abilene <S3: lm>
##  2              Amarillo <S3: lm>
##  3             Arlington <S3: lm>
##  4                Austin <S3: lm>
##  5              Bay Area <S3: lm>
##  6              Beaumont <S3: lm>
##  7       Brazoria County <S3: lm>
##  8           Brownsville <S3: lm>
##  9 Bryan-College Station <S3: lm>
## 10         Collin County <S3: lm>
## # ... with 36 more rows

coefs <- models %>% tidy(mod)
coefs

## # A tibble: 552 x 6
## # Groups:   city [46]
##       city            term  estimate  std.error statistic       p.value
##      <chr>           <chr>     <dbl>      <dbl>     <dbl>         <dbl>
##  1 Abilene     (Intercept) 6.5420182 0.07043248 92.883541 7.898616e-151
##  2 Abilene  factor(month)2 0.3537962 0.09960657  3.551937  4.914925e-04
##  3 Abilene  factor(month)3 0.6747930 0.09960657  6.774584  1.826729e-10
##  4 Abilene  factor(month)4 0.7489369 0.09960657  7.518950  2.758003e-12
##  5 Abilene  factor(month)5 0.9164846 0.09960657  9.201046  1.056158e-16
##  6 Abilene  factor(month)6 1.0024412 0.09960657 10.064007  4.372570e-19
##  7 Abilene  factor(month)7 0.9539842 0.09960657  9.577523  9.810940e-18
##  8 Abilene  factor(month)8 0.9337577 0.10125307  9.222019  9.259347e-17
##  9 Abilene  factor(month)9 0.6036668 0.10125307  5.961961  1.342427e-08
## 10 Abilene factor(month)10 0.6084391 0.10125307  6.009093  1.055654e-08
## # ... with 542 more rows

months <- coefs %>%
  filter(grepl("factor", term)) %>%
  tidyr::extract(term, "month", "(\\d+)", convert = TRUE)
months

## # A tibble: 506 x 6
## # Groups:   city [46]
##       city month  estimate  std.error statistic      p.value
##  *   <chr> <int>     <dbl>      <dbl>     <dbl>        <dbl>
##  1 Abilene     2 0.3537962 0.09960657  3.551937 4.914925e-04
##  2 Abilene     3 0.6747930 0.09960657  6.774584 1.826729e-10
##  3 Abilene     4 0.7489369 0.09960657  7.518950 2.758003e-12
##  4 Abilene     5 0.9164846 0.09960657  9.201046 1.056158e-16
##  5 Abilene     6 1.0024412 0.09960657 10.064007 4.372570e-19
##  6 Abilene     7 0.9539842 0.09960657  9.577523 9.810940e-18
##  7 Abilene     8 0.9337577 0.10125307  9.222019 9.259347e-17
##  8 Abilene     9 0.6036668 0.10125307  5.961961 1.342427e-08
##  9 Abilene    10 0.6084391 0.10125307  6.009093 1.055654e-08
## 10 Abilene    11 0.4189183 0.10125307  4.137339 5.449232e-05
## # ... with 496 more rows
…
